ID,Variants,Fitness,log_fitness,clip_fitness,fold,0,1,2,3
133462,TNTY,0.0,-9.210340371976182,0.0,1,16,2,16,18
30784,APPP,0.0,-9.210340371976182,0.0,2,0,14,14,14
130974,TFFM,0.0,-9.210340371976182,0.0,3,16,13,13,12
9290,IDMW,0.0,-9.210340371976182,0.0,1,9,3,12,17
43174,DRNQ,0.0,-9.210340371976182,0.0,2,3,1,2,5
101152,NPYI,0.0,-9.210340371976182,0.0,2,2,14,18,9
45144,EAQQ,0.0,-9.210340371976182,0.0,3,6,0,5,5
104378,PEKW,0.0,-9.210340371976182,0.0,2,14,6,11,17
4899,ECIV,0.0,-9.210340371976182,0.0,1,6,4,9,19
19282,TPIV,0.0,-9.210340371976182,0.0,3,16,14,9,19
97868,NEKK,0.0,-9.210340371976182,0.0,1,2,6,11,11
57265,FWTS,0.0,-9.210340371976182,0.0,3,13,17,16,15
51972,FEEK,0.0,-9.210340371976182,0.0,1,13,6,6,11
147113,YQNG,0.0,-9.210340371976182,0.0,0,18,5,2,7
106513,PLQI,0.0,-9.210340371976182,0.0,1,14,10,5,9
99078,NHWM,0.0,-9.210340371976182,0.0,4,2,8,17,12
32356,AYRL,0.0,-9.210340371976182,0.0,4,0,18,1,10
52466,FFQQ,0.0,-9.210340371976182,0.0,2,13,13,5,5
68400,HQKF,0.0,-9.210340371976182,0.0,0,8,5,11,13
32988,CCQQ,0.0,-9.210340371976182,0.0,3,4,4,5,5
135326,TVPQ,0.0,-9.210340371976182,0.0,3,16,19,14,5
50880,EWSF,0.0,-9.210340371976182,0.0,3,6,17,15,13
84782,LEQI,0.0,-9.210340371976182,0.0,3,10,6,5,9
42538,DPIW,0.0,-9.210340371976182,0.0,4,3,14,9,17
2239,ADDR,0.0,-9.210340371976182,0.0,3,0,3,3,1
47269,EKDG,0.0,-9.210340371976182,0.0,3,6,11,3,7
48670,EPEW,0.0,-9.210340371976182,0.0,0,6,14,6,17
134722,TSTW,0.0,-9.210340371976182,0.0,1,16,15,16,17
101270,NQHW,0.0,-9.210340371976182,0.0,0,2,5,8,17
52906,FGYC,0.0,-9.210340371976182,0.0,2,13,7,18,4
66605,HKEI,0.0,-9.210340371976182,0.0,4,8,11,6,9
72233,IGMM,0.0,-9.210340371976182,0.0,4,9,7,12,12
94982,MRAD,0.0,-9.210340371976182,0.0,0,12,1,0,3
2277,ADPL,0.0,-9.210340371976182,0.0,3,0,3,14,10
109875,PYLM,0.0,-9.210340371976182,0.0,1,14,18,10,12
57458,FYKS,0.0,-9.210340371976182,0.0,2,13,18,11,15
24086,VRHH,0.0,-9.210340371976182,0.0,3,19,1,8,8
32344,AYNS,0.0,-9.210340371976182,0.0,3,0,18,2,15
130761,TENE,0.0,-9.210340371976182,0.0,2,16,6,2,6
135747,TYAK,0.0,-9.210340371976182,0.0,0,16,18,0,11
83632,KYHY,0.0,-9.210340371976182,0.0,3,11,18,8,18
14526,PDKF,0.0,-9.210340371976182,0.0,2,14,3,11,13
61431,GPAY,0.0,-9.210340371976182,0.0,3,7,14,0,18
9308,IDNW,0.0,-9.210340371976182,0.0,3,9,3,2,17
28938,AGEA,0.0,-9.210340371976182,0.0,1,0,7,6,0
55106,FPKG,0.0,-9.210340371976182,0.0,4,13,14,11,7
5878,EYQV,0.0,-9.210340371976182,0.0,1,6,18,5,19
2384,AFNV,0.0,-9.210340371976182,0.0,2,0,13,2,19
99301,NINW,0.0,-9.210340371976182,0.0,4,2,9,2,17
28950,AGFH,0.0,-9.210340371976182,0.0,4,0,7,13,8
95170,MRNH,0.0,-9.210340371976182,0.0,0,12,1,2,8
38853,CYQY,0.0,-9.210340371976182,0.0,2,4,18,5,18
64925,HEHH,0.0,-9.210340371976182,0.0,4,8,6,8,8
64137,GYYP,0.0,-9.210340371976182,0.0,4,7,18,18,14
102145,NSVI,0.0,-9.210340371976182,0.0,2,2,15,19,9
40325,DGMI,0.0,-9.210340371976182,0.0,2,3,7,12,9
62422,GRWW,0.0,-9.210340371976182,0.0,2,7,1,17,17
43107,DRIY,0.0,-9.210340371976182,0.0,1,3,1,9,18
31855,AVAP,0.0,-9.210340371976182,0.0,1,0,19,0,14
20112,VCQN,0.0,-9.210340371976182,0.0,1,19,4,5,2
7972,GYLV,0.0,-9.210340371976182,0.0,1,7,18,10,19
39713,DEMW,0.0,-9.210340371976182,0.0,3,3,6,12,17
38726,CYHM,0.0,-9.210340371976182,0.0,4,4,18,8,12
56132,FSKQ,0.0,-9.210340371976182,0.0,4,13,15,11,5
107420,PPHN,0.0,-9.210340371976182,0.0,4,14,14,8,2
188,DDGK,0.0,-9.210340371976182,0.0,4,3,3,7,11
137916,WHHK,0.0,-9.210340371976182,0.0,1,17,8,8,11
43996,DTYW,0.0,-9.210340371976182,0.0,3,3,16,18,17
41524,DLHR,0.0,-9.210340371976182,0.0,0,3,10,8,1
31698,ATMI,0.0,-9.210340371976182,0.0,2,0,16,12,9
51032,EYFH,0.0,-9.210340371976182,0.0,1,6,18,13,8
130053,TADN,0.0,-9.210340371976182,0.0,1,16,0,3,2
18748,TDIY,0.0,-9.210340371976182,0.0,2,16,3,9,18
107150,PNMN,0.0,-9.210340371976182,0.0,1,14,2,12,2
91405,MEPQ,0.0,-9.210340371976182,0.0,0,12,6,14,5
45813,EETL,0.0,-9.210340371976182,0.0,0,6,6,16,10
63531,GWDW,0.0,-9.210340371976182,0.0,3,7,17,3,17
133715,TPPM,0.0,-9.210340371976182,0.0,3,16,14,14,12
22070,VKKQ,0.0,-9.210340371976182,0.0,2,19,11,11,5
42206,DNIG,0.0,-9.210340371976182,0.0,0,3,2,9,7
23918,VQSY,0.0,-9.210340371976182,0.0,4,19,5,15,18
129439,SWIN,0.0,-9.210340371976182,0.0,4,15,17,9,2
132251,TKHE,0.0,-9.210340371976182,0.0,2,16,11,8,6
132050,TIQY,0.0,-9.210340371976182,0.0,2,16,9,5,18
23978,VQYH,0.0,-9.210340371976182,0.0,3,19,5,18,8
42026,DMTA,0.0,-9.210340371976182,0.0,2,3,12,16,0
31124,ARNY,0.0,-9.210340371976182,0.0,2,0,1,2,18
41394,DKWM,0.0,-9.210340371976182,0.0,0,3,11,17,12
51182,EYTA,0.0,-9.210340371976182,0.0,3,6,18,16,0
46665,EHIL,0.0,-9.210340371976182,0.0,4,6,8,9,10
46048,EFMS,0.0,-9.210340371976182,0.0,0,6,13,12,15
40035,DFNW,0.0,-9.210340371976182,0.0,4,3,13,2,17
50882,EWSH,0.0,-9.210340371976182,0.0,3,6,17,15,8
29934,ALNC,0.0,-9.210340371976182,0.0,1,0,10,2,4
42720,DPYH,0.0,-9.210340371976182,0.0,4,3,14,18,8
31348,ASIF,0.0,-9.210340371976182,0.0,0,0,15,9,13
29071,AGTC,0.0,-9.210340371976182,0.0,1,0,7,16,4
131861,TIDF,0.0,-9.210340371976182,0.0,2,16,9,3,13
19432,TTPV,0.0,-9.210340371976182,0.0,0,16,16,14,19
67802,HNQC,0.0,-9.210340371976182,0.0,2,8,2,5,4
51712,FCKI,0.0,-9.210340371976182,0.0,3,13,4,11,9
77922,KCWE,0.0,-9.210340371976182,0.0,1,11,4,17,6
29595,AKKP,0.0,-9.210340371976182,0.0,4,0,11,11,14
61502,GPFW,0.0,-9.210340371976182,0.0,0,7,14,13,17
40428,DGTK,0.0,-9.210340371976182,0.0,2,3,7,16,11
44545,DWSK,0.0,-9.210340371976182,0.0,4,3,17,15,11
104895,PFWQ,0.0,-9.210340371976182,0.0,3,14,13,17,5
70577,HYQW,0.0,-9.210340371976182,0.0,4,8,18,5,17
34697,CIQF,0.0,-9.210340371976182,0.0,0,4,9,5,13
1392,VDWL,0.0,-9.210340371976182,0.0,4,19,3,17,10
28359,AAVK,0.0,-9.210340371976182,0.0,0,0,0,19,11
77122,IYPM,0.0,-9.210340371976182,0.0,1,9,18,14,12
32282,AYDH,0.0,-9.210340371976182,0.0,4,0,18,3,8
32978,CCQE,0.0,-9.210340371976182,0.0,4,4,4,5,6
45199,EATR,0.0005686376241,-7.310268312603119,0.0005686376241,0,6,0,16,1
10246,KDFH,0.0005698198229,-7.308501802789786,0.0005698198229,3,11,3,13,8
83821,KYVL,0.0005932539715,-7.274114144671237,0.0005932539715,3,11,18,19,10
92636,MIES,0.0006418813462,-7.206321238365657,0.0006418813462,0,12,9,6,15
15939,QHRV,0.000670130403,-7.168950702909952,0.000670130403,2,5,8,1,19
67776,HNNP,0.0006938818603,-7.138575898341707,0.0006938818603,0,8,2,2,14
106940,PMVW,0.0007677404336,-7.049617927656526,0.0007677404336,3,14,12,19,17
117938,RFPC,0.000833080045,-6.977019567656544,0.000833080045,1,1,13,14,4
108873,PTNA,0.0008646161981,-6.943780257913896,0.0008646161981,3,14,16,2,0
113665,QNIP,0.0008659821005,-6.942365253426535,0.0008659821005,4,5,2,9,14
96857,MYKP,0.0009259572122,-6.882129236611947,0.0009259572122,3,12,18,11,14
62555,GSIH,0.0009516782459,-6.857368061353183,0.0009516782459,1,7,15,9,8
123659,SASN,0.0009847305442,-6.826423669192224,0.0009847305442,4,15,0,15,2
87936,LPQP,0.0009930555609,-6.818778237685382,0.0009930555609,0,10,14,5,14
97948,NEPT,0.001003968259,-6.808844082446345,0.001003968259,0,2,6,14,16
9410,IDVQ,0.001007659319,-6.805506211763529,0.001007659319,1,9,3,19,5
98254,NFMT,0.001026529344,-6.78861374960745,0.001026529344,3,2,13,12,16
144478,YGWN,0.001026529344,-6.78861374960745,0.001026529344,2,18,7,17,2
70962,IATH,0.001054166672,-6.764376691515851,0.001054166672,2,9,0,16,8
73385,IKVH,0.001070638027,-6.75020635658438,0.001070638027,2,9,11,19,8
24533,VSNQ,0.001081196587,-6.741227297533154,0.001081196587,0,19,15,2,5
60466,GLFQ,0.001091965477,-6.732151673006715,0.001091965477,0,7,10,13,5
125517,SIDQ,0.001100736284,-6.7248203403452935,0.001100736284,3,15,9,3,5
15762,QDWF,0.001125598911,-6.704325647522729,0.001125598911,0,5,3,17,13
18024,SGGR,0.001154382277,-6.681112037135033,0.001154382277,1,15,7,7,1
8390,HDYL,0.001166312063,-6.671646490374455,0.001166312063,1,8,3,18,10
88511,LRIE,0.001171296303,-6.667718188059307,0.001171296303,0,10,1,9,6
112199,QIDI,0.001176323325,-6.663771736658803,0.001176323325,0,5,9,3,9
87765,LPEG,0.001218148155,-6.631527440266275,0.001218148155,3,10,14,6,7
96974,MYSE,0.001223586316,-6.627410320441096,0.001223586316,4,12,18,15,6
120464,RNRK,0.001223586316,-6.627410320441096,0.001223586316,3,1,2,1,11
43478,DSLP,0.001243008321,-6.61284316563,0.001243008321,4,3,15,10,14
24174,VRNE,0.001268904328,-6.593744619705157,0.001268904328,0,19,1,2,6
61374,GNVS,0.001277033593,-6.5878236637452465,0.001277033593,4,7,2,19,15
56295,FSVP,0.001295902292,-6.5742142684954805,0.001295902292,2,13,15,19,14
105348,PHFS,0.001305158737,-6.567605002507022,0.001305158737,3,14,8,13,15
110989,QEQL,0.001309836726,-6.56428137846019,0.001309836726,4,5,6,5,10
146099,YMPM,0.00131770834,-6.558713556090128,0.00131770834,0,18,12,14,12
62394,GRVI,0.001319823442,-6.557222751719125,0.001319823442,1,7,1,19,9
125609,SIKS,0.001350164211,-6.536078479996316,0.001350164211,2,15,9,11,15
85510,LGRP,0.001363598681,-6.526857026022142,0.001363598681,2,10,7,1,14
102126,NSTI,0.001412800695,-6.493792581207123,0.001412800695,4,2,15,16,9
136080,WADH,0.001430310945,-6.4822843322004795,0.001430310945,0,17,0,3,8
121322,RRDW,0.001445587209,-6.472351370290783,0.001445587209,2,1,1,3,17
95723,MTDG,0.001450176375,-6.469386564202029,0.001450176375,3,12,16,3,7
133052,TMPS,0.001457890079,-6.464422886654114,0.001457890079,0,16,12,14,15
67879,HNVI,0.00148153154,-6.44936157232543,0.00148153154,3,8,2,19,9
26254,WDIP,0.001484971628,-6.4471887721285634,0.001484971628,0,17,3,9,14
47467,EKRG,0.001497723141,-6.439175700089968,0.001497723141,2,6,11,1,7
41498,DLFH,0.001531191815,-6.41844435649494,0.001531191815,0,3,10,13,8
87244,LMQR,0.001557291675,-6.402570530077948,0.001557291675,3,10,12,5,1
100978,NPLQ,0.001575191579,-6.3918277447231,0.001575191579,1,2,14,10,5
48015,EMHP,0.001612254911,-6.369944115734437,0.001612254911,2,6,12,8,14
62979,GTNQ,0.001631448421,-6.358796983188069,0.001631448421,3,7,16,2,5
79992,KKVI,0.001638764334,-6.354580570907259,0.001638764334,3,11,11,19,9
101376,NQPT,0.001641217574,-6.353170655297783,0.001641217574,0,2,5,14,16
119863,RMAE,0.001659993279,-6.342445288689368,0.001659993279,0,1,12,0,6
79073,KHES,0.00166111112,-6.341810350947748,0.00166111112,2,11,8,6,15
142040,WVVQ,0.001676607034,-6.33304989438851,0.001676607034,1,17,19,19,5
13880,NKEV,0.001734704651,-6.300871763563464,0.001734704651,4,2,11,6,19
140511,WQPW,0.001745753725,-6.294867561877232,0.001745753725,2,17,5,14,17
10526,KEGE,0.001772090527,-6.280699543655797,0.001772090527,0,11,6,7,6
43959,DTVT,0.001785559184,-6.273530852737007,0.001785559184,1,3,16,19,16
123022,RWWK,0.001791394345,-6.270440973236121,0.001791394345,4,1,17,17,11
107014,PNDA,0.001791394345,-6.270440973236121,0.001791394345,4,14,2,3,0
139952,WPAQ,0.001802191791,-6.264748483454688,0.001802191791,3,17,14,0,5
98317,NFRI,0.001803179834,-6.26422919487025,0.001803179834,2,2,13,1,9
127259,SPDL,0.001819137178,-6.255879580405136,0.001819137178,0,15,14,3,10
75508,IRYK,0.001827222232,-6.251675570823135,0.001827222232,3,9,1,18,11
125570,SIHP,0.001836404253,-6.246922503557416,0.001836404253,1,15,9,8,14
86612,LKVY,0.001859092387,-6.235273980845885,0.001859092387,1,10,11,19,18
67427,HMNM,0.001864512482,-6.232511165206357,0.001864512482,2,8,12,2,12
144297,YGKR,0.001925644038,-6.201867585531944,0.001925644038,0,18,7,11,1
76913,IWYW,0.00193016433,-6.199638538465859,0.00193016433,2,9,17,18,17
111785,QGWN,0.001937745494,-6.195911232254574,0.001937745494,4,5,7,17,2
73962,IMMK,0.001943853438,-6.192918312734005,0.001943853438,1,9,12,12,11
73993,IMPE,0.001981325312,-6.17475041894427,0.001981325312,1,9,12,14,6
73534,ILHH,0.001989715679,-6.170727261015509,0.001989715679,3,9,10,8,8
60611,GLQP,0.002000608283,-6.165528317624276,0.002000608283,1,7,10,5,14
43656,DSYR,0.002015318638,-6.158549821566636,0.002015318638,1,3,15,18,1
136884,WEKI,0.002022755238,-6.155040393533965,0.002022755238,3,17,6,11,9
91625,MFFQ,0.002050498764,-6.142055480490707,0.002050498764,1,12,13,13,5
52355,FFIM,0.002060776953,-6.137287421499803,0.002060776953,2,13,13,9,12
56456,FTIN,0.002060776953,-6.137287421499803,0.002060776953,2,13,16,9,2
102489,NTVI,0.002065954785,-6.134894005505801,0.002065954785,0,2,16,19,9
87292,LMTH,0.002071904259,-6.132150957532076,0.002071904259,0,10,12,16,8
95105,MRIR,0.002077599622,-6.129532099652686,0.002077599622,4,12,1,9,1
16908,RFAV,0.00209840009,-6.1200254149973805,0.00209840009,2,1,13,0,19
61560,GPLE,0.002108333345,-6.115517190494942,0.002108333345,2,7,14,10,6
68405,HQKL,0.002175264562,-6.085658942351485,0.002175264562,0,8,5,11,10
99260,NILP,0.002188290098,-6.07995042241798,0.002188290098,4,2,9,10,14
79906,KKPQ,0.002228319795,-6.062608389560946,0.002228319795,1,11,11,14,5
61157,GNFR,0.002258928584,-6.049547752859711,0.002258928584,2,7,2,13,1
66744,HKPC,0.00228402779,-6.03896387296778,0.00228402779,0,8,11,14,4
117524,REKR,0.002301287446,-6.031750249625171,0.002301287446,3,1,6,11,1
108211,PRPL,0.002303221301,-6.0309452328352045,0.002303221301,4,14,1,14,10
122563,RVPL,0.002304891028,-6.030250687053879,0.002304891028,0,1,19,14,10
80404,KMAW,0.00231782947,-6.024885054504018,0.00231782947,2,11,12,0,17
57922,GATA,0.002326683657,-6.021229703955174,0.002326683657,1,7,0,16,0
124510,SFFN,0.002327671633,-6.020822656693645,0.002327671633,0,15,13,13,2
120647,RPFF,0.002330640602,-6.01960043414969,0.002330640602,2,1,14,13,13
33404,CEVQ,0.002354089992,-6.009999261809161,0.002354089992,4,4,6,19,5
82031,KRRY,0.002366187063,-6.0050820202637665,0.002366187063,2,11,1,1,18
128539,SSSY,0.002368793438,-6.004025734330394,0.002368793438,1,15,15,15,18
143624,YELQ,0.002375072225,-6.001485701569083,0.002375072225,4,18,6,10,5
56184,FSNM,0.002383333346,-5.998153530158108,0.002383333346,0,13,15,2,12
111172,QFEK,0.002383333346,-5.998153530158108,0.002383333346,0,5,13,6,11
1335,VDSE,0.002383333346,-5.998153530158108,0.002383333346,4,19,3,15,6
16431,QYRV,0.002397230334,-5.992573027645593,0.002397230334,2,5,18,1,19
117822,RFFQ,0.002397230334,-5.992573027645593,0.002397230334,2,1,13,13,5
5097,EDNH,0.002425516237,-5.981309786854898,0.002425516237,3,6,3,2,8
111101,QEYL,0.002437500013,-5.976575929491078,0.002437500013,4,5,6,18,10
116626,QYVH,0.002439910992,-5.97562624108538,0.002439910992,0,5,18,19,8
24127,VRKN,0.002447172632,-5.9727713067186645,0.002447172632,2,19,1,11,2
14844,PGSV,0.002454477625,-5.969907528284434,0.002454477625,3,14,7,15,19
87211,LMNY,0.00245594386,-5.969333706714321,0.00245594386,2,10,12,2,18
68032,HPHT,0.002458146501,-5.968472305768809,0.002458146501,3,8,14,8,16
87693,LNYH,0.002461826361,-5.967034852589733,0.002461826361,0,10,2,18,8
99025,NHSN,0.00249166668,-5.955454104440254,0.00249166668,3,2,8,15,2
27877,YNNV,0.002514526007,-5.946672457168121,0.002514526007,1,18,2,2,19
73062,IIWM,0.002537808656,-5.937806761055393,0.002537808656,1,9,9,17,12
129602,SWTN,0.002561526494,-5.928855450864093,0.002561526494,4,15,17,16,2
60396,GLAS,0.002565886539,-5.927218616645888,0.002565886539,4,7,10,0,15
58828,GFLS,0.002581632667,-5.9213294658443845,0.002581632667,4,7,13,10,15
95843,MTLW,0.002610317474,-5.9106895018744545,0.002610317474,0,12,16,10,17
75878,ITAE,0.002610317474,-5.9106895018744545,0.002610317474,0,9,16,0,6
5007,EDHH,0.002610317474,-5.9106895018744545,0.002610317474,4,6,3,8,8
100734,NNSE,0.002635416681,-5.9014715033413685,0.002635416681,0,2,2,15,6
76089,ITPQ,0.002652419369,-5.895274983529479,0.002652419369,1,9,16,14,5
62487,GSDM,0.002673983754,-5.887470813631521,0.002673983754,4,7,15,3,12
71092,ICEM,0.002713696384,-5.873256220922659,0.002713696384,4,9,4,6,12
22441,VLLW,0.002717059081,-5.872061817286888,0.002717059081,3,19,10,10,17
108341,PRYP,0.002736272893,-5.865264450329417,0.002736272893,4,14,1,18,14
95206,MRQH,0.002740833348,-5.863657837457521,0.002740833348,4,12,1,5,8
89596,LVKH,0.002746326,-5.861726239142197,0.002746326,1,10,19,11,8
21541,VHVK,0.00275460638,-5.858821315781963,0.00275460638,0,19,8,19,11
120497,RNTE,0.002763865561,-5.855582971977121,0.002763865561,3,1,2,16,6
74209,INEY,0.002782571927,-5.849072353140187,0.002782571927,0,9,2,6,18
119086,RITS,0.002787288151,-5.847437573444808,0.002787288151,3,1,9,16,15
101083,NPSM,0.002796768723,-5.844159396657572,0.002796768723,2,2,14,15,12
88620,LRPY,0.002796768723,-5.844159396657572,0.002796768723,2,10,1,14,18
139898,WNVR,0.002812422279,-5.838770145768266,0.002812422279,1,17,2,19,1
126838,SMWH,0.002819787395,-5.836244475284225,0.002819787395,0,15,12,17,8
69444,HTKM,0.00282560139,-5.834255216013,0.00282560139,1,8,16,11,12
121338,RRER,0.002835057312,-5.831028298805846,0.002835057312,1,1,1,6,1
90557,MADP,0.002900352749,-5.809025414226366,0.002900352749,2,12,0,3,14
113520,QMWN,0.002900352749,-5.809025414226366,0.002900352749,4,5,12,17,2
119468,RKWG,0.002904743897,-5.807562940250836,0.002904743897,2,1,11,17,7
111582,QGIS,0.00291268156,-5.804924713101792,0.00291268156,0,5,7,9,15
79734,KKDF,0.002931372565,-5.798739770281473,0.002931372565,1,11,11,3,13
137668,WGPE,0.002938515286,-5.796386275629756,0.002938515286,2,17,7,14,6
117034,RAYW,0.00294261249,-5.795038760901931,0.00294261249,0,1,0,18,17
80637,KMRP,0.002946001295,-5.793925599361523,0.002946001295,3,11,12,1,14
107617,PPVM,0.002968411568,-5.7865952558432205,0.002968411568,1,14,14,19,12
84769,LEPP,0.002968411568,-5.7865952558432205,0.002968411568,3,10,6,14,14
128702,STFQ,0.00297109306,-5.78572173514962,0.00297109306,2,15,16,13,5
105024,PGHT,0.002979166683,-5.783096276071461,0.002979166683,4,14,7,8,16
111541,QGFP,0.002983396451,-5.781723545740838,0.002983396451,1,5,7,13,14
95857,MTMQ,0.003011904778,-5.772520271463179,0.003011904778,4,12,16,12,5
10595,KGDV,0.003020202036,-5.769857524129064,0.003020202036,1,11,7,3,19
112420,QISN,0.003026156694,-5.767950922199453,0.003026156694,0,5,9,15,2
123582,SANI,0.003028545136,-5.7671871952685745,0.003028545136,4,15,0,2,9
119910,RMDQ,0.003036169872,-5.764753009593682,0.003036169872,1,1,12,3,5
49294,ERAR,0.003036934458,-5.764509243201935,0.003036934458,1,6,1,0,1
96623,MWRR,0.003045370387,-5.7618236256528,0.003045370387,2,12,17,1,1
117651,RESK,0.003049134751,-5.760627546098889,0.003049134751,0,1,6,15,11
69861,HVPL,0.003070179922,-5.7539669349749,0.003070179922,4,8,19,14,10
109523,PWKT,0.003079588032,-5.7510036402678715,0.003079588032,0,14,17,11,16
62622,GSNA,0.003088262927,-5.748279047490091,0.003088262927,2,7,15,2,0
126020,SKPH,0.003088262927,-5.748279047490091,0.003088262927,1,15,11,14,8
85569,LGVS,0.003100740757,-5.744373009402836,0.003100740757,2,10,7,19,15
78450,KFLC,0.00311458335,-5.740057525336208,0.00311458335,3,11,13,10,4
8832,HRGR,0.003147237494,-5.729950645943054,0.003147237494,1,8,1,7,1
139151,WLSP,0.0031562822,-5.727169163835866,0.0031562822,4,17,10,15,14
69459,HTLI,0.00317226082,-5.72227415070459,0.00317226082,3,8,16,10,9
88540,LRKR,0.003187015521,-5.717775262376308,0.003187015521,4,10,1,11,1
147530,YRRS,0.003201248157,-5.713454652626469,0.003201248157,1,18,1,1,15
115820,QVMW,0.00321909957,-5.70806174669429,0.00321909957,1,5,19,12,17
112624,QKIT,0.003302208853,-5.683330395652385,0.003302208853,3,5,11,9,16
97648,NCSF,0.003342479693,-5.671563226289538,0.003342479693,4,2,4,15,13
76507,IVTL,0.003371851219,-5.663067334772699,0.003371851219,2,9,19,16,10
30583,ANSR,0.003426041685,-5.647579372898234,0.003426041685,1,0,2,15,1
103555,NYYT,0.003426041685,-5.647579372898234,0.003426041685,2,2,18,18,16
127875,SQWG,0.003454831951,-5.63944748801162,0.003454831951,2,15,5,17,7
108018,PRAT,0.003457737613,-5.638630438101457,0.003457737613,3,14,1,0,16
119420,RKSR,0.003469409301,-5.635355158785682,0.003469409301,4,1,11,15,1
145627,YLFQ,0.003526218343,-5.619564952521954,0.003526218343,4,18,10,13,5
67320,HMFP,0.003532760492,-5.61776245359752,0.003532760492,2,8,12,13,14
119039,RIRH,0.003556102854,-5.611357492853791,0.003556102854,2,1,9,1,8
106269,PKYA,0.003559523829,-5.610422241398899,0.003559523829,4,14,11,18,0
94095,MNKN,0.003559523829,-5.610422241398899,0.003559523829,1,12,2,11,2
121962,RSWT,0.003604499762,-5.598207046353751,0.003604499762,0,1,15,17,16
21662,VIFE,0.003642303453,-5.588053960618057,0.003642303453,3,19,9,13,6
111572,QGIG,0.003650020197,-5.585994053147655,0.003650020197,4,5,7,9,7
47325,EKHI,0.003654444464,-5.5848149503835165,0.003654444464,0,6,11,8,9
116038,QWDQ,0.003703828849,-5.571747127687626,0.003703828849,1,5,17,3,5
128213,SRVI,0.003708186295,-5.570602241243358,0.003708186295,3,15,1,19,9
94013,MNEA,0.003723958353,-5.566469174804172,0.003723958353,3,12,2,6,0
111639,QGMT,0.003738807295,-5.5625935608891695,0.003738807295,0,5,7,12,16
83827,KYVS,0.003761928125,-5.5565887059724055,0.003761928125,3,11,18,19,15
16522,RDAM,0.003844086042,-5.535538026556791,0.003844086042,2,1,3,0,12
128588,SSWM,0.003852576995,-5.53338750899448,0.003852576995,1,15,15,17,12
16122,QNIV,0.003873969397,-5.527989835687397,0.003873969397,3,5,2,9,19
122621,RVSM,0.003877338456,-5.527142413033438,0.003877338456,3,1,19,15,12
1353,VDTE,0.003915476212,-5.5175993303976325,0.003915476212,2,19,3,16,6
66645,HKHN,0.003972222244,-5.50356642263781,0.003972222244,2,8,11,8,2
98081,NFAG,0.004015873038,-5.492904307453038,0.004015873038,3,2,13,0,7
10611,KGGQ,0.004044231332,-5.486037952223947,0.004044231332,3,11,7,7,5
72616,IHPS,0.004090796042,-5.474864576935658,0.004090796042,2,9,8,14,15
62974,GTNK,0.004090796042,-5.474864576935658,0.004090796042,0,7,16,2,11
113458,QMSG,0.004100997528,-5.472433275226391,0.004100997528,3,5,12,15,7
95229,MRRM,0.004115365388,-5.469019003740982,0.004115365388,3,12,1,1,12
103261,NYDH,0.0041527778,-5.460182909549266,0.0041527778,0,2,18,3,8
23562,VPRR,0.004178099616,-5.454246382945531,0.004178099616,2,19,14,1,1
132665,TLMH,0.004216666689,-5.445271774330955,0.004216666689,1,16,10,12,8
66351,HILH,0.004244653415,-5.438809289844449,0.004244653415,0,8,9,10,8
146837,YPSC,0.004282552106,-5.430124051678812,0.004282552106,3,18,14,15,4
103522,NYWA,0.004282552106,-5.430124051678812,0.004282552106,1,2,18,17,0
14316,NYPV,0.004282552106,-5.430124051678812,0.004282552106,3,2,18,14,19
128250,SRYI,0.004293733705,-5.427575911089274,0.004293733705,0,15,1,18,9
140275,WPYA,0.004325561955,-5.420358013105261,0.004325561955,1,17,14,18,0
58382,GEEC,0.004350529124,-5.414732285602877,0.004350529124,3,7,6,6,4
124913,SGKN,0.004350529124,-5.414732285602877,0.004350529124,0,15,7,11,2
105536,PHTI,0.004350529124,-5.414732285602877,0.004350529124,1,14,8,16,9
34084,CGVE,0.004375332597,-5.409174606665206,0.004375332597,0,4,7,19,6
106432,PLKY,0.004397058847,-5.404331685444184,0.004397058847,3,14,10,11,18
144118,YFVS,0.004416247087,-5.400073920506784,0.004416247087,0,18,13,19,15
135271,TVLP,0.004420698949,-5.399088662358202,0.004420698949,0,16,19,10,14
41508,DLFT,0.00445663959,-5.391169859141261,0.00445663959,2,3,10,13,16
124957,SGMY,0.004463897961,-5.3895782045942005,0.004463897961,0,15,7,12,18
138427,WIRY,0.004496240626,-5.382516564839586,0.004496240626,3,17,9,1,18
74481,INYY,0.004530303055,-5.375132958382427,0.004530303055,2,9,2,18,18
5253,EDYW,0.00456805558,-5.367012658030595,0.00456805558,3,6,3,18,17
120187,RMWH,0.004591010633,-5.362107232957507,0.004591010633,3,1,12,17,8
69307,HSYW,0.004645480251,-5.3505626400291915,0.004645480251,4,8,15,18,17
141228,WSPT,0.004658353372,-5.347853600838581,0.004658353372,3,17,15,14,16
37289,CSDQ,0.004677190014,-5.343902768517996,0.004677190014,2,4,15,3,5
12573,MDTL,0.00468518521,-5.342230548452206,0.00468518521,2,12,3,16,10
146339,YNHQ,0.00468518521,-5.342230548452206,0.00468518521,3,18,2,8,5
49746,ESIT,0.004725574738,-5.333825434601079,0.004725574738,1,6,15,9,16
141716,WTYP,0.004741926208,-5.330442660565878,0.004741926208,1,17,16,18,14
92103,MGPW,0.004752890199,-5.328180834201375,0.004752890199,0,12,7,14,17
102379,NTNH,0.004851032475,-5.30815914334341,0.004851032475,3,2,16,2,8
148889,YWPS,0.005017543887,-5.275080664598479,0.005017543887,0,18,17,14,15
22373,VLHG,0.005048903536,-5.268971492605181,0.005048903536,3,19,10,8,7
84795,LERC,0.005113495052,-5.256504812809594,0.005113495052,2,10,6,1,4
109536,PWLN,0.005139062528,-5.251612703525159,0.005139062528,3,14,17,10,2
100754,NNTG,0.005204113952,-5.239272542166461,0.005204113952,0,2,2,16,7
127330,SPII,0.005287781379,-5.223621596795462,0.005287781379,0,15,14,9,9
76367,IVKT,0.00529118407,-5.222990239151887,0.00529118407,2,9,19,11,16
90409,LYRM,0.005322006501,-5.217289328902324,0.005322006501,2,10,18,1,12
138662,WKKQ,0.005400656844,-5.202887767692633,0.005400656844,3,17,11,11,5
117279,RCRM,0.005435080294,-5.196649206332357,0.005435080294,1,1,4,1,12
78610,KFVY,0.005466049412,-5.191069738447487,0.005466049412,1,11,13,19,18
51612,FCCR,0.005481666696,-5.188267856148778,0.005481666696,1,13,4,4,1
6114,FDLP,0.005513170528,-5.182639562582087,0.005513170528,1,13,3,10,14
3640,CPHV,0.005548245644,-5.176410287527323,0.005548245644,4,4,14,8,19
44650,DYCS,0.005593537445,-5.168423528937138,0.005593537445,1,3,18,4,15
142874,YAHH,0.005593537445,-5.168423528937138,0.005593537445,4,18,0,8,8
112737,QKRC,0.005604976172,-5.166416472363937,0.005604976172,3,5,11,1,4
35882,CNCF,0.005631849345,-5.161717052508863,0.005631849345,4,4,2,4,13
71027,IAYW,0.00565120278,-5.158346266917347,0.00565120278,0,9,0,18,17
33390,CETY,0.005670689686,-5.154963675969178,0.005670689686,2,4,6,16,18
10329,KDLS,0.005717754629,-5.146840894257071,0.005717754629,4,11,3,10,15
90527,MAAY,0.00577017547,-5.137870752914292,0.00577017547,0,12,0,0,18
26043,VYYI,0.005790492989,-5.134415585500351,0.005790492989,4,19,18,18,9
22590,VLVW,0.005804711511,-5.132004685564361,0.005804711511,4,19,10,19,17
16157,QPGW,0.005805093324,-5.131940025223996,0.005805093324,1,5,14,7,17
65513,HFYT,0.005831560315,-5.127467978323397,0.005831560315,0,8,13,18,16
39123,DAMT,0.005831560315,-5.127467978323397,0.005831560315,1,3,0,12,16
98083,NFAI,0.00586274513,-5.122224311663065,0.00586274513,0,2,13,0,9
45939,EFEL,0.005894265265,-5.116952055978471,0.005894265265,3,6,13,6,10
118686,RHRK,0.005958333365,-5.106320539003703,0.005958333365,1,1,8,1,11
79302,KHVI,0.005984352288,-5.102035002250943,0.005984352288,0,11,8,19,9
100119,NLYC,0.00600182485,-5.099167396803322,0.00600182485,2,2,10,18,4
7740,GQGS,0.006007305968,-5.098269524800813,0.006007305968,3,7,5,7,15
115365,QTFM,0.006023809556,-5.095570899645431,0.006023809556,2,5,16,13,12
37340,CSHL,0.006082789415,-5.085985747695081,0.006082789415,1,4,15,8,10
66120,HHSL,0.006210347466,-5.065564538017988,0.006210347466,0,8,8,15,10
30169,AMFL,0.0062291667,-5.062586694461733,0.0062291667,1,0,12,13,10
144043,YFQS,0.006249457146,-5.059385958550812,0.006249457146,4,18,13,5,15
132567,TLET,0.006276717591,-5.055101798187109,0.006276717591,2,16,10,6,16
104316,PEFL,0.006315284212,-5.049071977609115,0.006315284212,1,14,6,13,10
131793,THVL,0.006325000034,-5.047558642909025,0.006325000034,1,16,8,19,10
135159,TVDK,0.006374031042,-5.039956328617785,0.006374031042,2,16,19,3,11
114964,QSCR,0.006421187869,-5.032698731140952,0.006421187869,3,5,15,4,1
146545,YNWC,0.006449019643,-5.028439913361499,0.006449019643,3,18,2,17,4
20580,VFAQ,0.006449019643,-5.028439913361499,0.006449019643,2,19,13,0,5
99957,NLMF,0.006525793686,-5.0167851126251195,0.006525793686,4,2,10,12,13
133451,TNTI,0.006525793686,-5.0167851126251195,0.006525793686,3,16,2,16,9
30017,ALSQ,0.006578000035,-5.008936732219584,0.006578000035,1,0,10,15,5
143918,YFHT,0.006703125036,-4.990373208249676,0.006703125036,1,18,13,8,16
55871,FRQF,0.00685208337,-4.968713898858502,0.00685208337,1,13,1,5,13
60762,GMCW,0.006909663903,-4.96046552444882,0.006909663903,1,7,12,4,17
3161,CDQK,0.006938818603,-4.956314934968071,0.006938818603,3,4,3,5,11
64285,HAKT,0.007057939952,-4.939533055608947,0.007057939952,0,8,0,11,16
46152,EFTS,0.007088362107,-4.935291934729794,0.007088362107,4,6,13,16,15
136926,WEMN,0.007192794698,-4.920868445931602,0.007192794698,4,17,6,12,2
110635,QCQC,0.007212719337,-4.918140072070578,0.007212719337,3,5,4,5,4
110527,QCIC,0.007212719337,-4.918140072070578,0.007212719337,0,5,4,9,4
90698,MANL,0.007231750259,-4.915541011368755,0.007231750259,1,12,0,2,10
117248,RCPS,0.007387690965,-4.894494811358292,0.007387690965,1,1,4,14,15
36586,CQDC,0.007407657698,-4.891831752932793,0.007407657698,0,4,5,3,4
94669,MQCR,0.007444238723,-4.886971090063628,0.007444238723,2,12,5,4,1
95838,MTLP,0.007514033983,-4.8777621578061545,0.007514033983,0,12,16,10,14
90415,LYRT,0.007528229949,-4.875899446312905,0.007528229949,1,10,18,1,16
32959,CCPC,0.007613425967,-4.864792836406268,0.007613425967,1,4,4,14,4
116139,QWLH,0.007742467085,-4.8482018149117545,0.007742467085,1,5,17,10,8
92645,MIFH,0.007745833375,-4.847772668356302,0.007745833375,1,12,9,13,8
112261,QIHS,0.007818542039,-4.838548176086555,0.007818542039,1,5,9,8,15
44612,DWYP,0.007830952423,-4.836982146764161,0.007830952423,3,3,17,18,14
33965,CGMN,0.007915764182,-4.826345153485532,0.007915764182,4,4,7,12,2
116436,QYHS,0.007944444487,-4.82277355163663,0.007944444487,3,5,18,8,15
38206,CVSQ,0.008014132597,-4.814147972576415,0.008014132597,3,4,19,15,5
23586,VPTC,0.008141089153,-4.798622765033464,0.008141089153,0,19,14,16,4
76999,IYFQ,0.008230730775,-4.787804098560033,0.008230730775,4,9,18,13,5
142511,WYFK,0.008269755792,-4.7831305714894325,0.008269755792,0,17,18,13,11
142650,WYQC,0.0083055556,-4.778862410796483,0.0083055556,4,17,18,5,4
16314,QTLV,0.008310134187,-4.778317849476532,0.008310134187,2,5,16,10,19
121098,RQMS,0.008378093204,-4.770269712481548,0.008378093204,0,1,5,12,15
47381,EKLL,0.008565104213,-4.7484513289971035,0.008565104213,2,6,11,10,10
103244,NYCI,0.008565104213,-4.7484513289971035,0.008565104213,4,2,18,4,9
35456,CLTT,0.008598692857,-4.744582510931547,0.008598692857,0,4,10,16,16
27361,YDLP,0.008963481153,-4.703501999502972,0.008963481153,2,18,3,10,14
31300,ASDS,0.008986338846,-4.700983219141973,0.008986338846,4,0,15,3,15
48488,ENQT,0.009238764095,-4.673581359372766,0.009238764095,2,6,2,5,16
31440,ASPP,0.009290960502,-4.668007701110365,0.009290960502,0,0,15,14,14
20728,VFLW,0.009363095289,-4.660355751867091,0.009363095289,2,19,13,10,17
3511,CLGE,0.009414398409,-4.654949005771466,0.009414398409,4,4,10,7,6
143558,YEHC,0.009561046563,-4.639653296770977,0.009561046563,4,18,6,8,4
33782,CFYL,0.009566608545,-4.639077750268055,0.009566608545,3,4,13,18,10
126545,SMCK,0.009934790388,-4.601697185043674,0.009934790388,2,15,12,4,11
143192,YCER,0.01002743908,-4.592506798210383,0.01002743908,4,18,4,6,1
117255,RCQF,0.01002743908,-4.592506798210383,0.01002743908,1,1,4,5,13
87737,LPCQ,0.01025481865,-4.570303297566558,0.01025481865,4,10,14,4,5
126658,SMKN,0.01072500006,-4.5258969995508584,0.01072500006,3,15,12,11,2
37231,CRYM,0.01072924086,-4.525505316455627,0.01072924086,2,4,1,18,12
55456,FQKT,0.01074836607,-4.523740802962605,0.01074836607,4,13,5,11,16
3557,CMGP,0.01089627937,-4.510198302490419,0.01089627937,2,4,12,7,14
39836,DEYR,0.01096333339,-4.504118936796339,0.01096333339,1,3,6,18,1
46094,EFQL,0.01096333339,-4.504118936796339,0.01096333339,2,6,13,5,10
117312,RCTH,0.01099717084,-4.5010650824303715,0.01099717084,2,1,4,16,8
142013,WVTG,0.01113989014,-4.48828620858571,0.01113989014,2,17,19,16,7
37647,CTEG,0.01155140492,-4.452328512249882,0.01155140492,0,4,16,6,7
58277,GCVG,0.01169075836,-4.440439244194408,0.01169075836,2,7,4,19,7
66028,HHMI,0.01174642863,-4.435728838260108,0.01174642863,1,8,8,12,9
22248,VKWM,0.01181393685,-4.430046400276511,0.01181393685,2,19,11,17,12
52309,FFEY,0.01227238813,-4.392288053005742,0.01227238813,3,13,13,6,18
34211,CHFF,0.01234609616,-4.386348266687873,0.01234609616,3,4,8,13,13
38875,CYSF,0.01258545925,-4.367298882408084,0.01258545925,1,4,18,15,13
20023,VCKP,0.01311403516,-4.326475744563695,0.01311403516,4,19,4,11,14
123985,SCRN,0.01378072633,-4.277253996021885,0.01378072633,0,15,4,1,2
37227,CRYH,0.01385814614,-4.271691988460614,0.01385814614,1,4,1,18,8
51249,FAAL,0.01499958549,-4.193087986531421,0.01499958549,2,13,0,0,10
34924,CKHR,0.01516666675,-4.182083471071592,0.01516666675,4,4,11,8,1
51297,FAEE,0.01522685193,-4.1781489607414635,0.01522685193,1,13,0,6,6
20340,VEIG,0.01532142865,-4.171997265981683,0.01532142865,1,19,6,9,7
43977,DTWT,0.01544131464,-4.164253340452177,0.01544131464,2,3,16,17,16
98440,NGCF,0.01544131464,-4.164253340452177,0.01544131464,0,2,7,4,13
12945,MNGE,0.01554767702,-4.157432806240114,0.01554767702,2,12,2,7,6
141518,WTLF,0.01591702086,-4.134103318430591,0.01591702086,0,17,16,10,13
131914,TIHE,0.01612254911,-4.121353084196603,0.01612254911,0,16,9,8,6
117372,RCYN,0.01684310996,-4.077894019831359,0.01684310996,3,1,4,18,2
4020,DDDL,0.01768279579,-4.029523817725789,0.01768279579,0,3,3,3,10
62098,GRAA,0.01831980623,-3.994328767754281,0.01831980623,1,7,1,0,0
84017,LALF,0.01917455429,-3.9489694835355102,0.01917455429,4,10,0,10,13
38574,CWVC,0.01942322845,-3.936150319767186,0.01942322845,3,4,17,19,4
105282,PHCE,0.01957738106,-3.9282854724329677,0.01957738106,2,14,8,4,6
115937,QVVD,0.02005487816,-3.9043089275813667,0.02005487816,1,5,19,19,3
84144,LATC,0.02036532519,-3.889023279107823,0.02036532519,1,10,0,16,4
131055,TFMA,0.02126508632,-3.845997169641561,0.02126508632,3,16,13,12,0
81034,KNVG,0.02143136415,-3.838244609185742,0.02143136415,3,11,2,19,7
14010,NNGW,0.02166666678,-3.827375526161123,0.02166666678,2,2,2,7,17
41159,DKFG,0.02222297309,-3.8021389473827636,0.02222297309,4,3,11,13,7
6396,FGGW,0.02368621412,-3.73864910478369,0.02368621412,4,13,7,7,17
6986,GCGT,0.02373015886,-3.7368033215067995,0.02373015886,3,7,4,7,16
50676,EWCI,0.02383333346,-3.732483086303589,0.02383333346,1,6,17,4,9
114382,QQLC,0.02392791018,-3.728539200140047,0.02392791018,2,5,5,10,4
26038,VYYC,0.02451151775,-3.704540744396299,0.02451151775,1,19,18,18,4
130593,TCWT,0.0249166668,-3.6882130042409957,0.0249166668,3,16,4,17,16
139618,WNCP,0.0249780379,-3.6857627999301417,0.0249780379,1,17,2,4,14
2125,YDGI,0.02515117661,-3.6788825259305993,0.02515117661,4,18,3,7,9
40787,DICQ,0.02885087735,-3.5421547697228593,0.02885087735,1,3,9,4,5
56860,FVNA,0.0290694446,-3.534633535393474,0.0290694446,3,13,19,2,0
26592,WGPV,0.02994660524,-3.50500559476525,0.02994660524,1,17,7,14,19
110649,QCQT,0.03065405718,-3.481733352620026,0.03065405718,0,5,4,5,16
125450,SHYA,0.03270953378,-3.417036141802252,0.03270953378,4,15,8,18,0
132231,TKFA,0.03373333352,-3.3863087636511633,0.03373333352,3,16,11,13,0
7404,GFGW,0.03476178881,-3.356363926093189,0.03476178881,4,7,13,7,17
136548,WCLF,0.03554564149,-3.3341283979410137,0.03554564149,3,17,4,10,13
39135,DANM,0.03654444464,-3.3064934408562903,0.03654444464,0,3,0,2,12
2695,ARLV,0.0375456623,-3.279537542528928,0.0375456623,4,0,1,10,19
16113,QNGN,0.04151711618,-3.1792437497012602,0.04151711618,2,5,2,7,2
130336,TCAI,0.04420698949,-3.1166128380784497,0.04420698949,0,16,4,0,9
18099,SIGQ,0.04625299384,-3.0714693970389875,0.04625299384,3,15,9,7,5
103976,PCFG,0.04803522363,-3.0337410698712364,0.04803522363,0,14,4,13,7
82637,KTLT,0.04988498507,-2.9960326172526446,0.04988498507,0,11,16,10,16
25449,VWFI,0.05103053081,-2.973373488367743,0.05103053081,1,19,17,13,9
53341,FIFI,0.05429952859,-2.9113997907827867,0.05429952859,2,13,9,13,9
16404,QYFV,0.05481666696,-2.9019383889262036,0.05481666696,0,5,18,13,19
141975,WVRG,0.05808762034,-2.844082655805207,0.05808762034,0,17,19,1,7
85293,LGCT,0.060447382,-2.804329046912001,0.060447382,4,10,7,4,16
89536,LVFD,0.06615804633,-2.714198367453014,0.06615804633,4,10,19,13,3
5489,ELGI,0.06764609966,-2.6919883904736155,0.06764609966,3,6,10,7,9
67612,HNCM,0.06909663903,-2.6708029864686575,0.06909663903,4,8,2,4,12
3824,CVGQ,0.08651337915,-2.4463009816977017,0.08651337915,4,4,19,7,5
48289,ENCS,0.09184707496,-2.386542139639534,0.09184707496,2,6,2,4,15
3790,CTGW,0.09559951369,-2.3465420621453354,0.09559951369,0,4,16,7,17
71350,ICWT,0.1022818276,-2.279046046969228,0.1022818276,3,9,4,17,16
59718,GICG,0.1218148155,-2.1044327117340518,0.1218148155,1,7,9,4,7
58997,GFYG,0.1417672421,-1.9528635734750233,0.1417672421,0,7,13,18,7
72770,IICI,0.146602714,-1.9193470936634986,0.146602714,3,9,9,4,9
59678,GHYA,0.1499701266,-1.8966525834682777,0.1499701266,4,7,8,18,0
32164,AWCT,0.1522685193,-1.8814532233403083,0.1522685193,4,0,17,4,16
122778,RWFA,0.1637307214,-1.808921570814729,0.1637307214,0,1,17,13,0
76948,IYCT,0.1649351041,-1.8015970755888675,0.1649351041,3,9,18,4,16
2906,CCGC,0.165616313,-1.7974779103911807,0.165616313,4,4,4,7,4
3340,CFGY,0.1694475318,-1.7746219678741604,0.1694475318,2,4,13,7,18
28679,AFFA,0.2308070188,-1.4657401655089766,0.2308070188,1,0,13,13,0
12684,MFGG,0.2456118247,-1.4035958740359236,0.2456118247,0,12,13,7,7
897,RMGV,0.2545450304,-1.3678847412552642,0.2545450304,0,1,12,7,19
17040,RIGQ,0.2756967062,-1.2880912564063607,0.2756967062,1,1,9,7,5
12458,MDMC,0.2830696737,-1.2617090072891706,0.2830696737,2,12,3,12,4
102686,NVLG,0.2900715293,-1.237283050512343,0.2900715293,4,2,19,10,7
6878,FWGY,0.305708335,-1.1847967294819066,0.305708335,4,13,17,7,18
75523,ISAF,0.3066016966,-1.1818796760872088,0.3066016966,1,9,15,0,13
11260,LDCM,0.3191381296,-1.1418179669064155,0.3191381296,3,10,3,4,12
93626,MMAS,0.3469323918,-1.058337155265142,0.3469323918,4,12,12,0,15
13130,MTGA,0.3695815534,-0.9951133104164032,0.3695815534,0,12,16,7,0
113579,QNCT,0.373750002,-0.9839006261864732,0.373750002,2,5,2,4,16
26314,WDMS,0.3749526164,-0.9806889524543098,0.3749526164,1,17,3,12,15
64510,HCCG,0.3900416688,-0.9412453524856306,0.3900416688,1,8,4,4,7
9601,IIAV,0.4067625342,-0.89927990439956,0.4067625342,3,9,9,0,19
63802,GWYG,0.4738389856,-0.7466766879353642,0.4738389856,0,7,17,18,7
2453,AIGC,0.5600833364,-0.5794911624036139,0.5600833364,2,0,9,7,4
116,AWGV,0.6578000035,-0.4187023295702274,0.6578000035,4,0,17,7,19
590,LDGT,0.7176147802,-0.33168303091672313,0.7176147802,4,10,3,7,16
9682,ILGA,0.7182699548,-0.330770585251801,0.7182699548,0,9,10,7,0
94890,MQSA,0.7496479925,-0.28801813891578965,0.7496479925,2,12,5,15,0
28384,AAYG,0.7590000041,-0.27562175255828164,0.7590000041,4,0,0,18,7
6529,FLGC,0.8278818538,-0.18876404053751292,0.8278818538,4,13,10,7,4
50731,EWFT,0.93527406,-0.06680876552666036,0.93527406,2,6,17,13,16
65196,HFCG,0.9452171222,-0.05623482873483016,0.9452171222,4,8,13,4,7
12454,MDLT,1.071268064,0.06893639629225773,1.0,4,12,3,10,16
95364,MSCS,1.138300731,0.12962440992260363,1.0,3,12,15,4,15
26643,WIGA,1.226560572,0.204295495022126,1.0,2,17,9,7,0
19558,VAAM,1.600054063,0.4700999139852112,1.0,0,19,0,0,12
9021,HYGT,1.681497484,0.5197442249453296,1.0,4,8,18,7,16
19973,VCFT,1.705494303,0.533913614810264,1.0,4,19,4,13,16
18065,SHGW,1.807288899,0.5918832064949631,1.0,1,15,8,7,17
29222,AIAA,2.140590845,0.7611286017034123,1.0,4,0,9,0,0
453,HYGV,2.487164496,0.9111835105937782,1.0,0,8,18,7,19
9570,IHGC,3.108682034,1.1342310205455954,1.0,4,9,8,7,4
116008,QWCA,3.670790222,1.3004341999542397,1.0,4,5,17,4,0
142253,WWMG,4.916300465,1.592576649940085,1.0,2,17,17,12,7
76933,IYCA,5.073267658,1.6240048294455651,1.0,3,9,18,4,0
